{
    "required": true,
    "package": "com.theoparis.creepinoutils.mixin",
    "compatibilityLevel": "JAVA_8",
    "mixins": [
        "BedBlockMixin",
        "CreeperEntityMixin",
        "DoorBlockMixin"
    ],
    "injectors": {
        "defaultRequire": 1
    }
}
