{
    "schemaVersion": 1,
    "id": "creepinoutils",
    "name": "Creepino Utilities",
    "version": "$version",
    "entrypoints": {
        "main": [
            {
                "adapter": "kotlin",
                "value": "com.theoparis.creepinoutils.CreepinoUtilsMod"
            }
        ],
        "client": [
            {
                "adapter": "kotlin",
                "value": "com.theoparis.creepinoutils.CreepinoUtilsClient"
            }
        ]
    },
    "mixins": [
        {
            "config": "creepinoutils.mixins.json"
        }
    ],
    "depends": {
        "fabric-language-kotlin": ">=1.5.0+kotlin.1.4.31"
    }
}
